{
  "$schema": "https://docs.renovatebot.com/renovate-schema.json",
  "extends": [
    "github>renovatebot/.github"
  ],
  "gitLabAutomerge": true,
  "packageRules": [
    {
      "description": "Automerge renovate minor and patch updates",
      "matchPackageNames": [
        "renovate/renovate"
      ],
      "matchUpdateTypes": [
        "minor",
        "patch"
      ],
      "automerge": true,
      "branchTopic": "{{{depNameSanitized}}}-{{{currentValue}}}"
    },
    {
      "description": "Allow updates after 3 days (exclude renovate)",
      "excludePackageNames": [
        "renovate/renovate"
      ],
      "separateMinorPatch": true,
      "stabilityDays": 3
    }
  ],
  "gitlabci": {
    "fileMatch": [
      "\\.gitlab-ci\\.yml$"
    ]
  }
}
